Whisker Correlations
…
First, I want to calculate the correlation between Carbon and Nitrogen for each otter and order them from lowest to highest

cor.whis<- whisker%>%
  group_by(OtterID)%>%
  summarize(correlation=mean(cor(C,N)))

cor.whis<-cor.whis[order(cor.whis$correlation),]
cor.whis

## # A tibble: 27 x 2
##    OtterID correlation
##    <chr>         <dbl>
##  1 163524      -0.559 
##  2 163525      -0.542 
##  3 163523      -0.473 
##  4 163520      -0.365 
##  5 163526       0.0168
##  6 163534       0.0925
##  7 163522       0.151 
##  8 163531       0.242 
##  9 163536       0.277 
## 10 77281        0.437 
## #  with 17 more rows
…
